<?xml version="1.0" encoding="utf-8"?>
<!-- Generator: Adobe Illustrator 22.1.0, SVG Export Plug-In . SVG Version: 6.00 Build 0)  -->
<svg version="1.1" id="Layer_1" xmlns="http://www.w3.org/2000/svg" xmlns:xlink="http://www.w3.org/1999/xlink" x="0px" y="0px"
	 viewBox="0 0 512.4 147.5" style="enable-background:new 0 0 512.4 147.5;" xml:space="preserve">
<style type="text/css">
	.st0{fill:#198BCA;}
	.st1{fill:#0B79B7;}
	.st2{fill:#0D6394;}
	.st3{fill:#0D4972;}
	.st4{fill:none;}
	.st5{fill:#139DD9;}
	.st6{fill:#9CD6EF;}
	.st7{fill:#26B2E3;}
	.st8{fill:#66C6EB;}
	.st9{fill:#2AA9E1;}
	.st10{fill:none;stroke:#FFFFFF;stroke-width:2;stroke-miterlimit:10;}
	.st11{fill:#FFFFFF;}
</style>
<title>logo-string</title>
<g>
	<polygon class="st0" points="14.6,41.9 14.6,73.2 35.1,53.8 	"/>
	<polygon class="st1" points="35.1,53.8 14.6,73.2 35.1,73.2 	"/>
	<polygon class="st2" points="14.6,73.2 35.1,92.6 35.1,73.2 	"/>
	<polygon class="st3" points="14.6,104.4 35.1,92.6 14.6,73.2 	"/>
	<polygon class="st4" points="41.6,26.3 41.6,26.3 41.6,26.3 	"/>
	<polygon class="st5" points="14.6,41.9 35.1,53.8 41.6,26.3 	"/>
	<polygon class="st6" points="41.6,26.3 68.7,34.4 68.7,10.7 	"/>
	<polygon class="st4" points="96.3,26.7 96.3,26.7 96.3,26.7 	"/>
	<polygon class="st3" points="68.7,10.7 68.7,34.4 96.3,26.7 	"/>
	<polygon class="st0" points="96.3,26.7 102.3,53.8 122.8,41.9 	"/>
	<polygon class="st5" points="102.3,53.8 122.8,73.2 122.8,41.9 	"/>
	<polygon class="st6" points="122.8,104.4 122.8,73.2 102.3,92.6 	"/>
	<polygon class="st7" points="35.1,53.8 51.9,44.1 41.6,26.3 	"/>
	<polygon class="st8" points="41.6,26.3 51.9,44.1 68.7,34.4 	"/>
	<polygon class="st4" points="96.3,119.7 96.3,119.7 96.3,119.7 	"/>
	<polygon class="st2" points="68.7,135.7 96.3,119.7 68.7,112 	"/>
	<polygon class="st9" points="122.8,104.4 102.3,92.6 96.3,119.7 	"/>
	<polygon class="st0" points="85.5,102.3 96.3,119.7 102.3,92.6 	"/>
	<polygon class="st3" points="68.7,112 96.3,119.7 96.3,119.7 85.5,102.3 	"/>
	<polygon class="st4" points="41.6,120.1 41.6,120.1 41.6,120.1 	"/>
	<polygon class="st1" points="68.7,112 41.6,120.1 68.7,135.7 	"/>
	<polygon class="st8" points="14.6,104.4 41.6,120.1 35.1,92.6 	"/>
	<polygon class="st5" points="35.1,92.6 41.6,120.1 51.9,102.3 	"/>
	<polygon class="st0" points="51.9,102.3 41.6,120.1 68.7,112 	"/>
	<polygon class="st7" points="102.3,53.8 102.3,73.2 122.8,73.2 	"/>
	<polygon class="st8" points="122.8,73.2 102.3,73.2 102.3,92.6 	"/>
	<polygon class="st2" points="96.3,26.7 68.7,34.4 85.5,44.1 96.3,26.7 	"/>
	<polygon class="st1" points="96.3,26.7 85.5,44.1 102.3,53.8 	"/>
</g>
<line class="st10" x1="10.1" y1="39.3" x2="68.6" y2="73.2"/>
<line class="st10" x1="126.2" y1="40" x2="69.1" y2="73"/>
<line class="st10" x1="68.9" y1="139.7" x2="68.9" y2="73.8"/>
<g>
	<path class="st11" d="M158.6,30.1v3.7c8,0.9,14.2,7.4,14.2,21.3c0,15.3-6.6,20.8-14.3,21.8v3.9h-6.7v-3.9
		c-7.8-1.1-14.2-6.4-14.2-21.6c0-14.5,7.3-20.5,14.3-21.5v-3.7H158.6z M151.8,39.2c-3.3,0.7-6.7,4.8-6.7,16.2
		c0,10.5,3.2,15.1,6.7,15.8V39.2z M158.5,71.2c3.8-0.7,6.7-4.9,6.7-16.2c0-11.4-3.7-15.3-6.7-15.8V71.2z"/>
	<path class="st11" d="M186.4,31.6v41h10.9v-41h7.6v41.1l3.5,0.1l-0.3,16.5h-5.9l-0.4-10.1h-23V31.6H186.4z"/>
	<path class="st11" d="M228,61.4l7.5,12.7h-5.6l-7.3-12.7l7.3-12.7h5.6L228,61.4z M238.8,61.4l7.5,12.7h-5.6l-7.3-12.7l7.3-12.7h5.6
		L238.8,61.4z"/>
	<path class="st11" d="M251.3,32.3c2.4-0.6,5.5-0.9,8.8-0.9c5,0,9.1,0.9,11.9,3.6c2.5,2.4,3.8,6.1,3.8,10.2c0,4.8-1.3,8.1-3.5,10.6
		c-2.8,3.3-7.4,4.9-11.4,4.9c-0.8,0-1.4,0-2.1-0.1v18.6h-7.5V32.3z M258.8,54.4c0.6,0.1,1.1,0.1,1.8,0.1c4.9,0,7.7-3.4,7.7-8.8
		c0-4.4-1.8-8.2-6.9-8.2c-1.1,0-2,0.1-2.6,0.4V54.4z"/>
	<path class="st11" d="M300.5,71.3c0,2.7,0.1,5.6,0.4,7.8h-6.8l-0.4-3.5h-0.1c-1.8,2.6-4.3,4-7.3,4c-4.9,0-8.7-4.1-8.7-10.2
		c0-8.8,7.5-12.6,15.3-12.6V56c0-3.6-1.4-6.1-5.2-6.1c-2.5,0-4.5,0.7-6.4,1.9l-1.4-5.2c1.7-1.1,5.3-2.5,9.5-2.5
		c8.9,0,11.2,6.1,11.2,13.4V71.3z M293.1,61.9c-3,0.1-8.3,0.8-8.3,6.9c0,3.9,2,5.3,3.7,5.3c1.9,0,3.7-1.3,4.3-4
		c0.1-0.5,0.2-1.1,0.2-1.8V61.9z"/>
	<path class="st11" d="M325.8,31.3l-0.1,12.8c8.1,1.2,12.9,7.4,12.9,17.9s-4.4,16.7-12.9,17.7l0.1,12.9H319l0.1-12.9
		c-8.4-1-12.9-7.1-12.9-17.8c0-10.4,4.7-16.5,12.9-17.8L319,31.3H325.8z M319.1,48.9c-4.9,1.7-6.1,8-6.1,13.1
		c0,5.5,1.3,11.6,6.1,13.1V48.9z M325.6,75.1c4.8-1.6,6.1-7.5,6.1-13.1c0-5.1-1.2-11.2-6.1-13V75.1z"/>
	<path class="st11" d="M351.1,44.8v9.4c0,6.1-0.3,11.8-0.6,16.2h0.2c1.3-4,3-8.3,4.4-11.7l5.4-13.9h7.3v34.4H361v-9.3
		c0-7.1,0.3-11.1,0.6-16h-0.1c-1.2,4-2.3,7.2-3.7,10.7c-1,2.5-3.9,9.7-6.1,14.5h-7.3V44.8H351.1z"/>
	<path class="st11" d="M382.4,44.8v13.8h8.5V44.8h7.6v34.4h-7.6V64.9h-8.5v14.3h-7.6V44.8H382.4z"/>
	<path class="st11" d="M426.4,71.3c0,2.7,0.1,5.6,0.4,7.8H420l-0.4-3.5h-0.1c-1.8,2.6-4.3,4-7.3,4c-4.9,0-8.7-4.1-8.7-10.2
		c0-8.8,7.5-12.6,15.3-12.6V56c0-3.6-1.4-6.1-5.2-6.1c-2.5,0-4.5,0.7-6.4,1.9l-1.4-5.2c1.7-1.1,5.3-2.5,9.5-2.5
		c8.9,0,11.2,6.1,11.2,13.4V71.3z M419,61.9c-3,0.1-8.3,0.8-8.3,6.9c0,3.9,2,5.3,3.7,5.3c1.9,0,3.7-1.3,4.3-4
		c0.1-0.5,0.2-1.1,0.2-1.8V61.9z"/>
	<path class="st11" d="M457.5,44.8v28.7l3,0.1l-0.3,14.8h-5.7l-0.4-9.3h-17.2l-0.4,9.3h-5.7l-0.3-14.8l2.5-0.1
		c1.3-2,2.3-4.7,2.9-7.1c0.9-3.7,1.3-7.7,1.3-11.9v-9.7H457.5z M443.9,54.5c0,4-0.3,8.1-1.1,11.9c-0.5,2.5-1.3,4.8-2.4,6.9h9.7V50.7
		h-6.1V54.5z"/>
	<path class="st11" d="M462.8,48.6h5.6l7.3,12.7l-7.3,12.7h-5.7l7.5-12.7L462.8,48.6z M473.6,48.6h5.6l7.4,12.7l-7.3,12.7h-5.7
		l7.5-12.7L473.6,48.6z"/>
</g>
<g>
	<path class="st11" d="M147.1,100.2v7.5h0.3l5.2-7.5h1.8l-5.7,7.6c2.7,0.3,3.9,2.3,4.7,4.6c0.4,1.4,0.7,2.8,1.3,4.2h-1.6
		c-0.4-1.1-0.8-2.4-1.2-3.7c-0.8-2.6-1.8-4-4.6-4h-0.2v7.7h-1.5v-16.3H147.1z"/>
	<path class="st11" d="M161,116.8c-2.3,0-4.7-2.4-4.7-8.4s2.4-8.4,5-8.4c2.3,0,4.7,2.4,4.7,8.4S163.5,116.8,161,116.8L161,116.8z
		 M161.1,115.5c2.8,0,3.3-4.5,3.3-7.1s-0.5-7.1-3.3-7.1c-2.8,0-3.3,4.5-3.3,7.1S158.3,115.5,161.1,115.5L161.1,115.5z"/>
	<path class="st11" d="M170.6,100.2v7.4h5.8v-7.4h1.5v16.3h-1.5v-7.7h-5.8v7.7h-1.5v-16.3H170.6z"/>
	<path class="st11" d="M189.1,116.1c-0.6,0.4-1.6,0.7-2.7,0.7c-3.2,0-5.4-2.9-5.4-8.3c0-4.5,2-8.5,5.8-8.5c0.8,0,1.7,0.2,2.2,0.6
		l-0.5,1.3c-0.3-0.2-1.1-0.5-2-0.5c-2.9,0-4.1,3.8-4.1,7.3c0,4.4,1.6,6.9,4.2,6.9c0.7,0,1.4-0.2,2-0.5L189.1,116.1z"/>
	<path class="st11" d="M198.8,112.9c0,1.2,0,2.7,0.1,3.7h-1.4l-0.1-1.8h-0.1c-0.6,1.3-1.7,2.1-3.1,2.1c-2,0-3.6-1.7-3.6-4.5
		c0-3.9,3-5.8,6.7-5.8v-0.6c0-2.8-0.4-4.7-2.8-4.7c-0.8,0-1.7,0.3-2.3,0.8l-0.4-1.1c0.5-0.5,1.8-1,3-1c2.2,0,4,1.3,4,5.2V112.9z
		 M197.3,107.7c-1.3,0-5.1,0.1-5.1,4.5c0,2.5,1.2,3.3,2.3,3.3c1.4,0,2.5-1.1,2.8-3.1c0.1-0.4,0.1-0.7,0.1-1.1V107.7z"/>
	<path class="st11" d="M210.7,100.2v16.3h-1.5v-15.1h-4.3v6.2c0,4.8-0.3,7.7-2.4,8.7c-0.4,0.2-0.9,0.3-1.4,0.3l-0.3-1.2
		c0.5-0.1,1-0.3,1.3-0.5c1.2-0.9,1.3-3.4,1.3-7.1v-7.7H210.7z"/>
	<path class="st11" d="M222,100.2v1.3h-3.8v15h-1.5v-15h-3.8v-1.3H222z"/>
	<path class="st11" d="M225.4,100.2v6.9c0,2.7,0,4.9-0.2,8h0.1c0.9-2.5,1.9-5.1,2.8-7.4l2.9-7.6h1.8v16.3h-1.4V110
		c0-3.7,0-5.7,0.2-8.4h-0.1c-0.6,2.2-1.5,4.4-2.2,6.3c-0.6,1.5-2.2,5.5-3.6,8.6H224v-16.3H225.4z"/>
	<path class="st11" d="M238.3,100.2v7.4h5.8v-7.4h1.5v16.3H244v-7.7h-5.8v7.7h-1.5v-16.3H238.3z"/>
	<path class="st11" d="M256.2,100.2v1.3H251v15h-1.5v-16.3H256.2z"/>
	<path class="st11" d="M271.1,112.9c0,1.2,0,2.7,0.1,3.7h-1.4l-0.1-1.8h-0.1c-0.6,1.3-1.7,2.1-3.1,2.1c-2,0-3.6-1.7-3.6-4.5
		c0-3.9,3-5.8,6.7-5.8v-0.6c0-2.8-0.4-4.7-2.8-4.7c-0.8,0-1.7,0.3-2.3,0.8l-0.4-1.1c0.5-0.5,1.8-1,3-1c2.2,0,4,1.3,4,5.2V112.9z
		 M269.6,107.7c-1.3,0-5.1,0.1-5.1,4.5c0,2.5,1.2,3.3,2.3,3.3c1.4,0,2.5-1.1,2.8-3.1c0.1-0.4,0.1-0.7,0.1-1.1V107.7z"/>
	<path class="st11" d="M274.9,100.2l2.5,9.9c0.4,1.5,0.5,2.7,0.8,3.8h0.1c0.2-1,0.6-2.4,0.9-3.8l2.3-9.9h1.5l-2.2,9.2
		c-1.2,4.8-2.3,9.2-4.3,11.9c-1,1.4-1.9,2.1-2.5,2.4l-0.7-1.2c0.8-0.5,1.6-1.4,2.4-2.5c0.7-1.1,1.3-2.4,1.5-3.3
		c0.1-0.5,0.2-0.6,0.2-0.9c0-0.2,0-0.4-0.1-0.6l-3.9-15H274.9z"/>
	<path class="st11" d="M293.5,100.2v1.3h-3.8v15h-1.5v-15h-3.8v-1.3H293.5z"/>
	<path class="st11" d="M302.4,116.1c-0.6,0.4-1.6,0.7-2.7,0.7c-3.2,0-5.4-2.9-5.4-8.3c0-4.5,2-8.5,5.8-8.5c0.8,0,1.7,0.2,2.2,0.6
		l-0.5,1.3c-0.3-0.2-1.1-0.5-2-0.5c-2.9,0-4.1,3.8-4.1,7.3c0,4.4,1.6,6.9,4.2,6.9c0.7,0,1.4-0.2,2-0.5L302.4,116.1z"/>
	<path class="st11" d="M308.6,116.8c-2.3,0-4.7-2.4-4.7-8.4s2.4-8.4,5-8.4c2.3,0,4.7,2.4,4.7,8.4S311.1,116.8,308.6,116.8
		L308.6,116.8z M308.7,115.5c2.8,0,3.3-4.5,3.3-7.1s-0.5-7.1-3.3-7.1c-2.8,0-3.3,4.5-3.3,7.1S305.9,115.5,308.7,115.5L308.7,115.5z"
		/>
	<path class="st11" d="M316.7,105.2c0-2.9-0.1-4.2-0.1-5h1.4l0.1,2.2h0.1c1-2,2.3-2.5,3.5-2.5c2.4,0,4.5,2.5,4.5,8.4
		c0,6.2-2.5,8.5-4.9,8.5c-1.7,0-2.5-1.1-3-2.1h-0.1v8.3h-1.5V105.2z M318.1,110.5c0,0.4,0,0.9,0.1,1.3c0.6,3.2,2.1,3.7,3,3.7
		c2.6,0,3.3-3.4,3.3-7.1c0-3.6-0.9-7.1-3.4-7.1c-1.5,0-2.8,2-3,3.9c0,0.4,0,0.9,0,1.3V110.5z"/>
	<path class="st11" d="M336.6,116.1c-0.6,0.4-1.6,0.7-2.7,0.7c-3.2,0-5.4-2.9-5.4-8.3c0-4.5,2-8.5,5.8-8.5c0.8,0,1.7,0.2,2.2,0.6
		l-0.5,1.3c-0.3-0.2-1.1-0.5-2-0.5c-2.9,0-4.1,3.8-4.1,7.3c0,4.4,1.6,6.9,4.2,6.9c0.7,0,1.4-0.2,2-0.5L336.6,116.1z"/>
	<path class="st11" d="M340.5,100.2v6.9c0,2.7,0,4.9-0.2,8h0.1c0.9-2.5,1.9-5.1,2.8-7.4l2.9-7.6h1.8v16.3h-1.4V110
		c0-3.7,0-5.7,0.2-8.4h-0.1c-0.6,2.2-1.5,4.4-2.2,6.3c-0.6,1.5-2.2,5.5-3.6,8.6h-1.8v-16.3H340.5z"/>
	<path class="st11" d="M353.4,100.2v7.4h5.8v-7.4h1.5v16.3h-1.5v-7.7h-5.8v7.7h-1.5v-16.3H353.4z"/>
	<path class="st11" d="M371.3,100.2v1.3h-5.2v15h-1.5v-16.3H371.3z"/>
	<path class="st11" d="M379.1,105.2c0-2.9-0.1-4.2-0.1-5h1.4l0.1,2.2h0.1c1-2,2.3-2.5,3.5-2.5c2.4,0,4.5,2.5,4.5,8.4
		c0,6.2-2.5,8.5-4.9,8.5c-1.7,0-2.5-1.1-3-2.1h-0.1v8.3h-1.5V105.2z M380.5,110.5c0,0.4,0,0.9,0.1,1.3c0.6,3.2,2.1,3.7,3,3.7
		c2.6,0,3.3-3.4,3.3-7.1c0-3.6-0.9-7.1-3.4-7.1c-1.5,0-2.8,2-3,3.9c0,0.4,0,0.9,0,1.3V110.5z"/>
	<path class="st11" d="M392.3,107.7c0,6.6,2.3,7.7,4.1,7.7c1.1,0,1.9-0.3,2.5-0.6l0.3,1.1c-0.8,0.5-2,0.8-3.1,0.8
		c-3.6,0-5.3-3.4-5.3-8.3c0-5.2,1.9-8.5,4.9-8.5c3.2,0,4.1,4,4.1,6.9c0,0.3,0,0.6,0,1H392.3z M398.3,106.6c0.1-4-1.6-5.3-2.8-5.3
		c-1.9,0-2.9,2.7-3.1,5.3H398.3z"/>
	<path class="st11" d="M404.3,100.2v7.5h0.3l5.2-7.5h1.8l-5.7,7.6c2.7,0.3,3.9,2.3,4.7,4.6c0.4,1.4,0.7,2.8,1.3,4.2h-1.6
		c-0.4-1.1-0.8-2.4-1.2-3.7c-0.8-2.6-1.8-4-4.6-4h-0.2v7.7h-1.5v-16.3H404.3z"/>
	<path class="st11" d="M414.3,105.2c0-2.9-0.1-4.2-0.1-5h1.4l0.1,2.2h0.1c1-2,2.3-2.5,3.5-2.5c2.4,0,4.5,2.5,4.5,8.4
		c0,6.2-2.5,8.5-4.9,8.5c-1.7,0-2.5-1.1-3-2.1h-0.1v8.3h-1.5V105.2z M415.7,110.5c0,0.4,0,0.9,0.1,1.3c0.6,3.2,2.1,3.7,3,3.7
		c2.6,0,3.3-3.4,3.3-7.1c0-3.6-0.9-7.1-3.4-7.1c-1.5,0-2.8,2-3,3.9c0,0.4,0,0.9,0,1.3V110.5z"/>
	<path class="st11" d="M426.7,100.2l2.5,9.9c0.4,1.5,0.5,2.7,0.8,3.8h0.1c0.2-1,0.6-2.4,0.9-3.8l2.3-9.9h1.5l-2.2,9.2
		c-1.2,4.8-2.3,9.2-4.3,11.9c-1,1.4-1.9,2.1-2.5,2.4l-0.7-1.2c0.8-0.5,1.6-1.4,2.4-2.5c0.7-1.1,1.3-2.4,1.5-3.3
		c0.1-0.5,0.2-0.6,0.2-0.9c0-0.2,0-0.4-0.1-0.6l-3.9-15H426.7z"/>
	<path class="st11" d="M445.2,100.2v1.3h-3.8v15H440v-15h-3.8v-1.3H445.2z"/>
	<path class="st11" d="M448.6,100.2v6.9c0,2.7,0,4.9-0.2,8h0.1c0.9-2.5,1.9-5.1,2.8-7.4l2.9-7.6h1.8v16.3h-1.4V110
		c0-3.7,0-5.7,0.2-8.4h-0.1c-0.6,2.2-1.5,4.4-2.2,6.3c-0.6,1.5-2.2,5.5-3.6,8.6h-1.8v-16.3H448.6z"/>
	<path class="st11" d="M461.5,100.2v7.4h5.8v-7.4h1.5v16.3h-1.5v-7.7h-5.8v7.7h-1.5v-16.3H461.5z"/>
	<path class="st11" d="M479.5,100.2v1.3h-5.2v15h-1.5v-16.3H479.5z"/>
</g>
</svg>
